{
  "type": "service_account",
  "project_id": "yelpsheets-247022",
  "private_key_id": "7e12fe4f7aa14bdf80a83ce34e2026749b2b3e30",
  "private_key": "-----BEGIN PRIVATE KEY-----\nMIIEvQIBADANBgkqhkiG9w0BAQEFAASCBKcwggSjAgEAAoIBAQDEr4qNgWaJAWkR\nYdV+x/IsTPfuJnWNsPIO5u7dCdxPjbhTSm4Q7EH0JEDem3vbiVgPTY3tgHRgYnfy\nIKaZ9Blt0UYVTYAuuc2gi1IdsaHgvKSCQIkhWICXBacs0Rgbeo+iqLr/EeMu8K80\nbG4qfBYwprVKlic63lSi/HfcB1X4KjhwLf8sFFw/ogZZ6ozd9cY1xgNEMRSBOAZ2\n7yH5jqxZBo4X0y9AyUMx5BZ/zdVGZBWjmz9FdnyjlwJD64c2PxV4J3OFYdZi4V0f\nFiw6n0KDUjUzp3JbekVbethFa2unGgYv6t5fxrlJ87wUulUZ231yOv6INEkVtvFa\nnD/9kHhvAgMBAAECggEADo6ZeBisMJawoo81oHEG/P1jWjZxe9+tQqoX4rcwnZi1\nHEEFfW4nAX1PacpjM9/p6xQH3ZykwF95VivReNKGsUiMYdY/FvY8gFXfaYA0pXAA\n0v0YySWGOuc5tMjy+lGrYNQRJwC5akd5CC3AR5ewgsBL6a3MUICVDg0Wh+vpEnlY\nJ69L9M72X1N4Duhu7u2MmRCM/YRClq8bvQh4abC9SYkozOCm6zWz7tHXNArnsQ1M\nl7ae14AcdMszJs6CdNJTL0qGiogB3u/8DBVuWj5FaoDW2JRDITKsMAVePJzIOypJ\nG6eKWj9rQNw5eHc6nlyCYskOJXJaG/cCwmX2DBEv1QKBgQD0FiDiwRu+5M4hhQ4O\nZ1uQu6zL2Vt/nZjJjO1VIR6gPCtUOJhXkrrlzlJy2rdcSOtTdPTnPfuCpJt5xLJy\nuv6zItOitljEV1Nipjdt+VOakcuLAGETxClNZBO/2POng6g7WwSTEE5iPYfuSUG2\n4kmMyHOeHXQbx3Aeym66bXjJYwKBgQDOSSNtvkkeOT4rKi1wAmmSkkoWCBmHHfUw\n7Q6gyy6u0B6vYWIRPd6y3KCZwVF+FeHOPcksqmijcezI3AZR7I0YwSsUcNm1FFmL\nUWSrv0Uuq981P5fExYHtIv6Uy9Y4hFFYhHv/sM4NMoBsMriN4KNKgJaxRdvh7AYh\nk6ZH4+RIhQKBgQDEoUruwLgUSQhRcnmHWvYlmzqxoTEXliKuQywyBxM/7BjPqSP4\ncEjFtjcvNUi/PDLvMWnVG1aQwQBK0Q0cZc2nC6hIDPNngB25e8NtgYw7GbZKDQ0n\nOkA3iyZpx2FJkkMlRcZinqE2fPETIcqhhJvRoO2a84lEk56b/2HCJ0xFlwKBgENP\nCghc9m6uLuLWuEy7/MaehR37Npkn5UE5mHRO18Sik+CV3fHSRkAGTUDeG0EQ0sUA\n1AuG7u2l1qUTZdyFWuSg4vWgfOjg4vbacAa6OlCoNASj41mJOIOvz3GtsRBv3DsN\nv4gGoLUdrVmgkyd4DM/adVESglSNNtLt4mvCqFIhAoGABxVS8ieAr6r5YTzBTGA3\nJphMMxRSl+agtlq4KNmBFYdnLjASmGlJBLKGXTHsLOisLZ6pL0t82vztVDs6DyRo\nGs9xTHeqbfIZ3fZs4fvdKtYcpI0xlr666QWdnsR8kCIONsJoWkY3gulKfMZ+yx7v\neUtjNWW/Mb5SETaYlRtNAaU=\n-----END PRIVATE KEY-----\n",
  "client_email": "yelp-723@yelpsheets-247022.iam.gserviceaccount.com",
  "client_id": "115321350295612387724",
  "auth_uri": "https://accounts.google.com/o/oauth2/auth",
  "token_uri": "https://oauth2.googleapis.com/token",
  "auth_provider_x509_cert_url": "https://www.googleapis.com/oauth2/v1/certs",
  "client_x509_cert_url": "https://www.googleapis.com/robot/v1/metadata/x509/yelp-723%40yelpsheets-247022.iam.gserviceaccount.com"
}
